{
    "name": "PlayModeTests",
    "references": [
        "GUID:27619889b8ba8c24980f49ee34dbb44a",
        "GUID:0acc523941302664db1f4e527237feb3",
        "GUID:91836b14885b8a34196f4aa8303d7793",
        "GUID:32386e3a0a6c86645b6fdf41632970fb",
        "GUID:79a371a1c0350ba48b4ffa94645b1735"
    ],
    "includePlatforms": [],
    "excludePlatforms": [],
    "allowUnsafeCode": false,
    "overrideReferences": true,
    "precompiledReferences": [
        "nunit.framework.dll"
    ],
    "autoReferenced": false,
    "defineConstraints": [
        "UNITY_INCLUDE_TESTS"
    ],
    "versionDefines": []
}